{
	"annotations": {
	  "list": [
		{
		  "builtIn": 1,
		  "datasource": "-- Grafana --",
		  "enable": true,
		  "hide": true,
		  "iconColor": "rgba(0, 211, 255, 1)",
		  "name": "Annotations & Alerts",
		  "type": "dashboard"
		}
	  ]
	},
	"editable": true,
	"gnetId": 27111991,
	"graphTooltip": 1,
	"iteration": 1599649554527,
	"links": [],
	"panels": [
	  {
		"cacheTimeout": null,
		"colorBackground": false,
		"colorValue": true,
		"colors": [
		  "rgba(50, 172, 45, 0.97)",
		  "rgba(237, 129, 40, 0.89)",
		  "rgba(245, 54, 54, 0.9)"
		],
		"datasource": "Metrics",
		"decimals": 0,
		"editable": true,
		"error": false,
		"fieldConfig": {
		  "defaults": {
			"custom": {}
		  },
		  "overrides": []
		},
		"format": "percent",
		"gauge": {
		  "maxValue": 100,
		  "minValue": 0,
		  "show": true,
		  "thresholdLabels": false,
		  "thresholdMarkers": true
		},
		"gridPos": {
		  "h": 10,
		  "w": 6,
		  "x": 0,
		  "y": 0
		},
		"height": "350px",
		"id": 4,
		"interval": null,
		"links": [],
		"mappingType": 1,
		"mappingTypes": [
		  {
			"$$hashKey": "object:385",
			"name": "value to text",
			"value": 1
		  },
		  {
			"$$hashKey": "object:386",
			"name": "range to text",
			"value": 2
		  }
		],
		"maxDataPoints": 100,
		"nullPointMode": "connected",
		"nullText": null,
		"postfix": "",
		"postfixFontSize": "50%",
		"prefix": "",
		"prefixFontSize": "50%",
		"rangeMaps": [
		  {
			"from": "null",
			"text": "N/A",
			"to": "null"
		  }
		],
		"sparkline": {
		  "fillColor": "rgba(31, 118, 189, 0.18)",
		  "full": false,
		  "lineColor": "rgb(31, 120, 193)",
		  "show": true,
		  "ymax": null
		},
		"tableColumn": "",
		"targets": [
		  {
			"alias": "",
			"dsType": "influxdb",
			"expr": "",
			"groupBy": [
			  {
				"params": [
				  "$interval"
				],
				"type": "time"
			  },
			  {
				"params": [
				  "null"
				],
				"type": "fill"
			  }
			],
			"intervalFactor": 2,
			"measurement": "docker_container_cpu",
			"orderByTime": "ASC",
			"policy": "default",
			"refId": "A",
			"resultFormat": "time_series",
			"select": [
			  [
				{
				  "params": [
					"usage_percent"
				  ],
				  "type": "field"
				},
				{
				  "params": [],
				  "type": "mean"
				}
			  ]
			],
			"tags": [
			  {
				"key": "io.kubernetes.container.name",
				"operator": "=~",
				"value": "/^$service$/"
			  }
			]
		  }
		],
		"thresholds": "70,80",
		"title": "$service CPU usage",
		"type": "singlestat",
		"valueFontSize": "80%",
		"valueMaps": [
		  {
			"$$hashKey": "object:388",
			"op": "=",
			"text": "N/A",
			"value": "null"
		  }
		],
		"valueName": "avg"
	  },
	  {
		"aliasColors": {},
		"bars": false,
		"dashLength": 10,
		"dashes": false,
		"datasource": "Metrics",
		"editable": true,
		"error": false,
		"fieldConfig": {
		  "defaults": {
			"custom": {}
		  },
		  "overrides": []
		},
		"fill": 1,
		"fillGradient": 0,
		"gridPos": {
		  "h": 10,
		  "w": 18,
		  "x": 6,
		  "y": 0
		},
		"height": "350px",
		"hiddenSeries": false,
		"id": 1,
		"legend": {
		  "avg": false,
		  "current": false,
		  "max": false,
		  "min": false,
		  "rightSide": true,
		  "show": true,
		  "sideWidth": 300,
		  "total": false,
		  "values": false
		},
		"lines": true,
		"linewidth": 1,
		"links": [],
		"maxPerRow": 1,
		"nullPointMode": "connected",
		"percentage": false,
		"pluginVersion": "7.1.5",
		"pointradius": 5,
		"points": false,
		"renderer": "flot",
		"seriesOverrides": [],
		"spaceLength": 10,
		"stack": false,
		"steppedLine": false,
		"targets": [
		  {
			"alias": "[[tag_io.kubernetes.pod.name]]",
			"dsType": "influxdb",
			"expr": "",
			"groupBy": [
			  {
				"params": [
				  "$interval"
				],
				"type": "time"
			  },
			  {
				"params": [
				  "io.kubernetes.pod.name"
				],
				"type": "tag"
			  },
			  {
				"params": [
				  "null"
				],
				"type": "fill"
			  }
			],
			"intervalFactor": 2,
			"measurement": "docker_container_cpu",
			"orderByTime": "ASC",
			"policy": "default",
			"refId": "A",
			"resultFormat": "time_series",
			"select": [
			  [
				{
				  "params": [
					"usage_percent"
				  ],
				  "type": "field"
				},
				{
				  "params": [],
				  "type": "mean"
				}
			  ]
			],
			"tags": [
			  {
				"key": "io.kubernetes.container.name",
				"operator": "=~",
				"value": "/^$service$/"
			  }
			]
		  }
		],
		"thresholds": [],
		"timeFrom": null,
		"timeRegions": [],
		"timeShift": null,
		"title": "$service container(s) CPU usage",
		"tooltip": {
		  "msResolution": false,
		  "shared": true,
		  "sort": 0,
		  "value_type": "individual"
		},
		"transparent": true,
		"type": "graph",
		"xaxis": {
		  "buckets": null,
		  "mode": "time",
		  "name": null,
		  "show": true,
		  "values": []
		},
		"yaxes": [
		  {
			"$$hashKey": "object:593",
			"format": "percent",
			"label": null,
			"logBase": 1,
			"max": null,
			"min": null,
			"show": true
		  },
		  {
			"$$hashKey": "object:594",
			"format": "short",
			"label": null,
			"logBase": 1,
			"max": null,
			"min": null,
			"show": true
		  }
		],
		"yaxis": {
		  "align": false,
		  "alignLevel": null
		}
	  },
	  {
		"cacheTimeout": null,
		"colorBackground": false,
		"colorValue": true,
		"colors": [
		  "rgba(50, 172, 45, 0.97)",
		  "rgba(237, 129, 40, 0.89)",
		  "rgba(245, 54, 54, 0.9)"
		],
		"datasource": "Metrics",
		"editable": true,
		"error": false,
		"fieldConfig": {
		  "defaults": {
			"custom": {}
		  },
		  "overrides": []
		},
		"format": "percent",
		"gauge": {
		  "maxValue": 100,
		  "minValue": 0,
		  "show": true,
		  "thresholdLabels": false,
		  "thresholdMarkers": true
		},
		"gridPos": {
		  "h": 10,
		  "w": 6,
		  "x": 0,
		  "y": 10
		},
		"height": "350px",
		"id": 10,
		"interval": null,
		"links": [],
		"mappingType": 1,
		"mappingTypes": [
		  {
			"name": "value to text",
			"value": 1
		  },
		  {
			"name": "range to text",
			"value": 2
		  }
		],
		"maxDataPoints": 100,
		"nullPointMode": "connected",
		"nullText": null,
		"postfix": "",
		"postfixFontSize": "50%",
		"prefix": "",
		"prefixFontSize": "50%",
		"rangeMaps": [
		  {
			"from": "null",
			"text": "N/A",
			"to": "null"
		  }
		],
		"sparkline": {
		  "fillColor": "rgba(31, 118, 189, 0.18)",
		  "full": false,
		  "lineColor": "rgb(31, 120, 193)",
		  "show": true
		},
		"tableColumn": "",
		"targets": [
		  {
			"alias": "",
			"dsType": "influxdb",
			"expr": "",
			"groupBy": [
			  {
				"params": [
				  "$interval"
				],
				"type": "time"
			  },
			  {
				"params": [
				  "null"
				],
				"type": "fill"
			  }
			],
			"intervalFactor": 2,
			"measurement": "docker_container_mem",
			"orderByTime": "ASC",
			"policy": "default",
			"refId": "A",
			"resultFormat": "time_series",
			"select": [
			  [
				{
				  "params": [
					"usage_percent"
				  ],
				  "type": "field"
				},
				{
				  "params": [],
				  "type": "mean"
				}
			  ]
			],
			"tags": [
			  {
				"key": "io.kubernetes.container.name",
				"operator": "=~",
				"value": "/^$service$/"
			  }
			]
		  }
		],
		"thresholds": "70,80",
		"title": "$service MEM usage",
		"type": "singlestat",
		"valueFontSize": "80%",
		"valueMaps": [
		  {
			"op": "=",
			"text": "N/A",
			"value": "null"
		  }
		],
		"valueName": "avg"
	  },
	  {
		"aliasColors": {},
		"bars": false,
		"dashLength": 10,
		"dashes": false,
		"datasource": "Metrics",
		"editable": true,
		"error": false,
		"fieldConfig": {
		  "defaults": {
			"custom": {}
		  },
		  "overrides": []
		},
		"fill": 1,
		"fillGradient": 0,
		"gridPos": {
		  "h": 10,
		  "w": 18,
		  "x": 6,
		  "y": 10
		},
		"height": "350px",
		"hiddenSeries": false,
		"id": 11,
		"legend": {
		  "avg": false,
		  "current": false,
		  "max": false,
		  "min": false,
		  "rightSide": true,
		  "show": true,
		  "sideWidth": 300,
		  "total": false,
		  "values": false
		},
		"lines": true,
		"linewidth": 1,
		"links": [],
		"maxPerRow": 1,
		"nullPointMode": "connected",
		"percentage": false,
		"pluginVersion": "7.1.5",
		"pointradius": 5,
		"points": false,
		"renderer": "flot",
		"seriesOverrides": [],
		"spaceLength": 10,
		"stack": false,
		"steppedLine": false,
		"targets": [
		  {
			"alias": "[[tag_io.kubernetes.pod.name]]",
			"dsType": "influxdb",
			"expr": "",
			"groupBy": [
			  {
				"params": [
				  "$interval"
				],
				"type": "time"
			  },
			  {
				"params": [
				  "io.kubernetes.pod.name"
				],
				"type": "tag"
			  },
			  {
				"params": [
				  "null"
				],
				"type": "fill"
			  }
			],
			"intervalFactor": 2,
			"measurement": "docker_container_mem",
			"orderByTime": "ASC",
			"policy": "default",
			"refId": "A",
			"resultFormat": "time_series",
			"select": [
			  [
				{
				  "params": [
					"usage_percent"
				  ],
				  "type": "field"
				},
				{
				  "params": [],
				  "type": "mean"
				}
			  ]
			],
			"tags": [
			  {
				"key": "io.kubernetes.container.name",
				"operator": "=~",
				"value": "/^$service$/"
			  }
			]
		  }
		],
		"thresholds": [],
		"timeFrom": null,
		"timeRegions": [],
		"timeShift": null,
		"title": "$service container(s) MEM usage",
		"tooltip": {
		  "msResolution": false,
		  "shared": true,
		  "sort": 0,
		  "value_type": "individual"
		},
		"transparent": true,
		"type": "graph",
		"xaxis": {
		  "buckets": null,
		  "mode": "time",
		  "name": null,
		  "show": true,
		  "values": []
		},
		"yaxes": [
		  {
			"format": "percent",
			"label": null,
			"logBase": 1,
			"max": null,
			"min": null,
			"show": true
		  },
		  {
			"format": "short",
			"label": null,
			"logBase": 1,
			"max": null,
			"min": null,
			"show": true
		  }
		],
		"yaxis": {
		  "align": false,
		  "alignLevel": null
		}
	  },
	  {
		"aliasColors": {},
		"bars": false,
		"dashLength": 10,
		"dashes": false,
		"datasource": "Metrics",
		"editable": true,
		"error": false,
		"fieldConfig": {
		  "defaults": {
			"custom": {}
		  },
		  "overrides": []
		},
		"fill": 1,
		"fillGradient": 0,
		"gridPos": {
		  "h": 9,
		  "w": 24,
		  "x": 0,
		  "y": 20
		},
		"hiddenSeries": false,
		"id": 3,
		"legend": {
		  "alignAsTable": true,
		  "avg": true,
		  "current": false,
		  "max": true,
		  "min": true,
		  "rightSide": true,
		  "show": true,
		  "sort": "avg",
		  "sortDesc": true,
		  "total": false,
		  "values": true
		},
		"lines": true,
		"linewidth": 1,
		"links": [],
		"nullPointMode": "connected",
		"percentage": false,
		"pluginVersion": "7.1.5",
		"pointradius": 5,
		"points": false,
		"renderer": "flot",
		"seriesOverrides": [],
		"spaceLength": 10,
		"stack": false,
		"steppedLine": false,
		"targets": [
		  {
			"alias": "[[tag_io.kubernetes.container.name]]",
			"dsType": "influxdb",
			"expr": "",
			"groupBy": [
			  {
				"params": [
				  "$interval"
				],
				"type": "time"
			  },
			  {
				"params": [
				  "io.kubernetes.container.name"
				],
				"type": "tag"
			  },
			  {
				"params": [
				  "null"
				],
				"type": "fill"
			  }
			],
			"intervalFactor": 2,
			"measurement": "docker_container_cpu",
			"orderByTime": "ASC",
			"policy": "default",
			"query": "SELECT mean(\"usage_percent\") FROM \"docker_container_cpu\" WHERE (\"io.kubernetes.pod.namespace\" = 'default' AND \"io.kubernetes.docker.type\" = 'container') AND $timeFilter GROUP BY time($interval), \"io.kubernetes.container.name\" fill(null)",
			"rawQuery": true,
			"refId": "A",
			"resultFormat": "time_series",
			"select": [
			  [
				{
				  "params": [
					"usage_percent"
				  ],
				  "type": "field"
				},
				{
				  "params": [],
				  "type": "mean"
				}
			  ]
			],
			"tags": [
			  {
				"key": "io.kubernetes.pod.namespace",
				"operator": "<>",
				"value": "kube-system"
			  },
			  {
				"condition": "AND",
				"key": "io.kubernetes.pod.namespace",
				"operator": "<>",
				"value": "metallb-system"
			  },
			  {
				"condition": "AND",
				"key": "io.kubernetes.docker.type",
				"operator": "=",
				"value": "container"
			  }
			]
		  }
		],
		"thresholds": [],
		"timeFrom": null,
		"timeRegions": [],
		"timeShift": null,
		"title": "CPU global usage",
		"tooltip": {
		  "msResolution": false,
		  "shared": true,
		  "sort": 0,
		  "value_type": "individual"
		},
		"transparent": true,
		"type": "graph",
		"xaxis": {
		  "buckets": null,
		  "mode": "time",
		  "name": null,
		  "show": true,
		  "values": []
		},
		"yaxes": [
		  {
			"format": "percent",
			"label": null,
			"logBase": 1,
			"max": null,
			"min": null,
			"show": true
		  },
		  {
			"format": "short",
			"label": null,
			"logBase": 1,
			"max": null,
			"min": null,
			"show": true
		  }
		],
		"yaxis": {
		  "align": false,
		  "alignLevel": null
		}
	  },
	  {
		"aliasColors": {},
		"bars": false,
		"dashLength": 10,
		"dashes": false,
		"datasource": "Metrics",
		"editable": true,
		"error": false,
		"fieldConfig": {
		  "defaults": {
			"custom": {}
		  },
		  "overrides": []
		},
		"fill": 2,
		"fillGradient": 0,
		"gridPos": {
		  "h": 9,
		  "w": 24,
		  "x": 0,
		  "y": 29
		},
		"hiddenSeries": false,
		"id": 9,
		"legend": {
		  "alignAsTable": true,
		  "avg": true,
		  "current": false,
		  "max": true,
		  "min": true,
		  "rightSide": true,
		  "show": true,
		  "sideWidth": 300,
		  "total": false,
		  "values": true
		},
		"lines": true,
		"linewidth": 1,
		"links": [],
		"nullPointMode": "connected",
		"percentage": false,
		"pluginVersion": "7.1.5",
		"pointradius": 5,
		"points": false,
		"renderer": "flot",
		"seriesOverrides": [],
		"spaceLength": 10,
		"stack": true,
		"steppedLine": false,
		"targets": [
		  {
			"alias": "[[tag_io.kubernetes.container.name]]",
			"dsType": "influxdb",
			"expr": "",
			"groupBy": [
			  {
				"params": [
				  "$interval"
				],
				"type": "time"
			  },
			  {
				"params": [
				  "io.kubernetes.container.name"
				],
				"type": "tag"
			  },
			  {
				"params": [
				  "null"
				],
				"type": "fill"
			  }
			],
			"intervalFactor": 2,
			"measurement": "docker_container_mem",
			"orderByTime": "ASC",
			"policy": "default",
			"query": "SELECT mean(\"usage\") FROM \"docker_container_mem\" WHERE (\"io.kubernetes.pod.namespace\" = 'default' AND \"io.kubernetes.docker.type\" = 'container') AND $timeFilter GROUP BY time($interval), \"io.kubernetes.container.name\" fill(null)",
			"rawQuery": true,
			"refId": "A",
			"resultFormat": "time_series",
			"select": [
			  [
				{
				  "params": [
					"usage"
				  ],
				  "type": "field"
				},
				{
				  "params": [],
				  "type": "mean"
				}
			  ]
			],
			"tags": [
			  {
				"key": "io.kubernetes.pod.namespace",
				"operator": "<>",
				"value": "kube-system"
			  },
			  {
				"condition": "AND",
				"key": "io.kubernetes.pod.namespace",
				"operator": "<>",
				"value": "metallb-system"
			  },
			  {
				"condition": "AND",
				"key": "io.kubernetes.docker.type",
				"operator": "=",
				"value": "container"
			  }
			]
		  }
		],
		"thresholds": [],
		"timeFrom": null,
		"timeRegions": [],
		"timeShift": null,
		"title": "MEM global usage",
		"tooltip": {
		  "msResolution": false,
		  "shared": true,
		  "sort": 0,
		  "value_type": "individual"
		},
		"transparent": true,
		"type": "graph",
		"xaxis": {
		  "buckets": null,
		  "mode": "time",
		  "name": null,
		  "show": true,
		  "values": []
		},
		"yaxes": [
		  {
			"format": "bytes",
			"label": null,
			"logBase": 1,
			"max": null,
			"min": null,
			"show": true
		  },
		  {
			"format": "short",
			"label": null,
			"logBase": 1,
			"max": null,
			"min": null,
			"show": true
		  }
		],
		"yaxis": {
		  "align": false,
		  "alignLevel": null
		}
	  },
	  {
		"aliasColors": {},
		"bars": false,
		"dashLength": 10,
		"dashes": false,
		"datasource": "Metrics",
		"editable": true,
		"error": false,
		"fieldConfig": {
		  "defaults": {
			"custom": {}
		  },
		  "overrides": []
		},
		"fill": 1,
		"fillGradient": 0,
		"gridPos": {
		  "h": 7,
		  "w": 24,
		  "x": 0,
		  "y": 38
		},
		"hiddenSeries": false,
		"id": 12,
		"legend": {
		  "alignAsTable": true,
		  "avg": false,
		  "current": true,
		  "max": true,
		  "min": true,
		  "rightSide": true,
		  "show": true,
		  "sideWidth": 300,
		  "total": false,
		  "values": true
		},
		"lines": true,
		"linewidth": 1,
		"links": [],
		"nullPointMode": "connected",
		"percentage": false,
		"pluginVersion": "7.1.5",
		"pointradius": 5,
		"points": false,
		"renderer": "flot",
		"seriesOverrides": [
		  {
			"alias": "/^.* OUT$/",
			"transform": "negative-Y"
		  }
		],
		"spaceLength": 10,
		"stack": false,
		"steppedLine": false,
		"targets": [
		  {
			"alias": "IN [[tag_io.kubernetes.container.name]]",
			"dsType": "influxdb",
			"expr": "",
			"groupBy": [
			  {
				"params": [
				  "$interval"
				],
				"type": "time"
			  },
			  {
				"params": [
				  "io.kubernetes.container.name"
				],
				"type": "tag"
			  },
			  {
				"params": [
				  "null"
				],
				"type": "fill"
			  }
			],
			"intervalFactor": 2,
			"measurement": "docker_container_net",
			"orderByTime": "ASC",
			"policy": "default",
			"refId": "B",
			"resultFormat": "time_series",
			"select": [
			  [
				{
				  "params": [
					"rx_bytes"
				  ],
				  "type": "field"
				},
				{
				  "params": [],
				  "type": "mean"
				},
				{
				  "params": [
					"10s"
				  ],
				  "type": "derivative"
				}
			  ]
			],
			"tags": [
			  {
				"key": "engine_host",
				"operator": "=~",
				"value": "/^$host$/"
			  },
			  {
				"condition": "AND",
				"key": "io.kubernetes.docker.type",
				"operator": "=",
				"value": "container"
			  }
			]
		  }
		],
		"thresholds": [],
		"timeFrom": null,
		"timeRegions": [],
		"timeShift": null,
		"title": "Network IN overview for $host",
		"tooltip": {
		  "msResolution": false,
		  "shared": true,
		  "sort": 0,
		  "value_type": "individual"
		},
		"transparent": true,
		"type": "graph",
		"xaxis": {
		  "buckets": null,
		  "mode": "time",
		  "name": null,
		  "show": true,
		  "values": []
		},
		"yaxes": [
		  {
			"format": "bytes",
			"label": "",
			"logBase": 1,
			"max": null,
			"min": "0",
			"show": true
		  },
		  {
			"format": "short",
			"label": "",
			"logBase": 1,
			"max": null,
			"min": null,
			"show": true
		  }
		],
		"yaxis": {
		  "align": false,
		  "alignLevel": null
		}
	  },
	  {
		"aliasColors": {},
		"bars": false,
		"dashLength": 10,
		"dashes": false,
		"datasource": "Metrics",
		"editable": true,
		"error": false,
		"fieldConfig": {
		  "defaults": {
			"custom": {}
		  },
		  "overrides": []
		},
		"fill": 1,
		"fillGradient": 0,
		"gridPos": {
		  "h": 7,
		  "w": 24,
		  "x": 0,
		  "y": 45
		},
		"hiddenSeries": false,
		"id": 13,
		"legend": {
		  "alignAsTable": true,
		  "avg": false,
		  "current": true,
		  "max": true,
		  "min": true,
		  "rightSide": true,
		  "show": true,
		  "sideWidth": 300,
		  "total": false,
		  "values": true
		},
		"lines": true,
		"linewidth": 1,
		"links": [],
		"nullPointMode": "connected",
		"percentage": false,
		"pluginVersion": "7.1.5",
		"pointradius": 5,
		"points": false,
		"renderer": "flot",
		"seriesOverrides": [
		  {
			"alias": "/^.* OUT$/",
			"transform": "negative-Y"
		  }
		],
		"spaceLength": 10,
		"stack": false,
		"steppedLine": false,
		"targets": [
		  {
			"alias": "IN [[tag_io.kubernetes.container.name]]",
			"dsType": "influxdb",
			"expr": "",
			"groupBy": [
			  {
				"params": [
				  "$interval"
				],
				"type": "time"
			  },
			  {
				"params": [
				  "io.kubernetes.container.name"
				],
				"type": "tag"
			  },
			  {
				"params": [
				  "null"
				],
				"type": "fill"
			  }
			],
			"intervalFactor": 2,
			"measurement": "docker_container_net",
			"orderByTime": "ASC",
			"policy": "default",
			"refId": "B",
			"resultFormat": "time_series",
			"select": [
			  [
				{
				  "params": [
					"tx_bytes"
				  ],
				  "type": "field"
				},
				{
				  "params": [],
				  "type": "mean"
				},
				{
				  "params": [
					"10s"
				  ],
				  "type": "derivative"
				}
			  ]
			],
			"tags": [
			  {
				"key": "engine_host",
				"operator": "=~",
				"value": "/^$host$/"
			  },
			  {
				"condition": "AND",
				"key": "io.kubernetes.docker.type",
				"operator": "=",
				"value": "container"
			  }
			]
		  }
		],
		"thresholds": [],
		"timeFrom": null,
		"timeRegions": [],
		"timeShift": null,
		"title": "Network OUT overview for $host",
		"tooltip": {
		  "msResolution": false,
		  "shared": true,
		  "sort": 0,
		  "value_type": "individual"
		},
		"transparent": true,
		"type": "graph",
		"xaxis": {
		  "buckets": null,
		  "mode": "time",
		  "name": null,
		  "show": true,
		  "values": []
		},
		"yaxes": [
		  {
			"format": "bytes",
			"label": "",
			"logBase": 1,
			"max": null,
			"min": "0",
			"show": true
		  },
		  {
			"format": "short",
			"label": "",
			"logBase": 1,
			"max": null,
			"min": null,
			"show": true
		  }
		],
		"yaxis": {
		  "align": false,
		  "alignLevel": null
		}
	  },
	  {
		"cacheTimeout": null,
		"colorBackground": false,
		"colorValue": true,
		"colors": [
		  "rgba(50, 172, 45, 0.97)",
		  "rgba(237, 129, 40, 0.89)",
		  "rgba(245, 54, 54, 0.9)"
		],
		"datasource": "Metrics",
		"editable": true,
		"error": false,
		"fieldConfig": {
		  "defaults": {
			"custom": {}
		  },
		  "overrides": []
		},
		"format": "none",
		"gauge": {
		  "maxValue": 100,
		  "minValue": 0,
		  "show": true,
		  "thresholdLabels": false,
		  "thresholdMarkers": true
		},
		"gridPos": {
		  "h": 10,
		  "w": 6,
		  "x": 0,
		  "y": 52
		},
		"height": "350px",
		"id": 6,
		"interval": null,
		"links": [],
		"mappingType": 1,
		"mappingTypes": [
		  {
			"name": "value to text",
			"value": 1
		  },
		  {
			"name": "range to text",
			"value": 2
		  }
		],
		"maxDataPoints": 100,
		"nullPointMode": "connected",
		"nullText": null,
		"postfix": "",
		"postfixFontSize": "50%",
		"prefix": "",
		"prefixFontSize": "50%",
		"rangeMaps": [
		  {
			"from": "null",
			"text": "N/A",
			"to": "null"
		  }
		],
		"sparkline": {
		  "fillColor": "rgba(31, 118, 189, 0.18)",
		  "full": true,
		  "lineColor": "rgb(31, 120, 193)",
		  "show": true,
		  "ymax": null
		},
		"tableColumn": "",
		"targets": [
		  {
			"dsType": "influxdb",
			"expr": "",
			"groupBy": [
			  {
				"params": [
				  "$interval"
				],
				"type": "time"
			  },
			  {
				"params": [
				  "null"
				],
				"type": "fill"
			  }
			],
			"intervalFactor": 2,
			"measurement": "docker",
			"orderByTime": "ASC",
			"policy": "default",
			"query": "SELECT mean(\"n_containers_running\") FROM \"docker\" WHERE (\"engine_host\" =~ /^$host$/) AND $timeFilter GROUP BY time($interval) fill(null)",
			"rawQuery": false,
			"refId": "A",
			"resultFormat": "time_series",
			"select": [
			  [
				{
				  "params": [
					"n_containers_running"
				  ],
				  "type": "field"
				},
				{
				  "params": [],
				  "type": "mean"
				}
			  ]
			],
			"tags": [
			  {
				"key": "engine_host",
				"operator": "=~",
				"value": "/^$host$/"
			  }
			]
		  }
		],
		"thresholds": "50,80,100",
		"title": "Number of running containers on host",
		"type": "singlestat",
		"valueFontSize": "80%",
		"valueMaps": [
		  {
			"op": "=",
			"text": "N/A",
			"value": "null"
		  }
		],
		"valueName": "avg"
	  },
	  {
		"cacheTimeout": null,
		"colorBackground": false,
		"colorValue": true,
		"colors": [
		  "rgba(50, 172, 45, 0.97)",
		  "rgba(237, 129, 40, 0.89)",
		  "rgba(245, 54, 54, 0.9)"
		],
		"datasource": "Metrics",
		"editable": true,
		"error": false,
		"fieldConfig": {
		  "defaults": {
			"custom": {}
		  },
		  "overrides": []
		},
		"format": "none",
		"gauge": {
		  "maxValue": 100,
		  "minValue": 0,
		  "show": true,
		  "thresholdLabels": false,
		  "thresholdMarkers": true
		},
		"gridPos": {
		  "h": 10,
		  "w": 6,
		  "x": 6,
		  "y": 52
		},
		"height": "350px",
		"id": 7,
		"interval": null,
		"links": [],
		"mappingType": 1,
		"mappingTypes": [
		  {
			"name": "value to text",
			"value": 1
		  },
		  {
			"name": "range to text",
			"value": 2
		  }
		],
		"maxDataPoints": 100,
		"nullPointMode": "connected",
		"nullText": null,
		"postfix": "",
		"postfixFontSize": "50%",
		"prefix": "",
		"prefixFontSize": "50%",
		"rangeMaps": [
		  {
			"from": "null",
			"text": "N/A",
			"to": "null"
		  }
		],
		"sparkline": {
		  "fillColor": "rgba(31, 118, 189, 0.18)",
		  "full": true,
		  "lineColor": "rgb(31, 120, 193)",
		  "show": true
		},
		"tableColumn": "",
		"targets": [
		  {
			"dsType": "influxdb",
			"expr": "",
			"groupBy": [
			  {
				"params": [
				  "$interval"
				],
				"type": "time"
			  },
			  {
				"params": [
				  "null"
				],
				"type": "fill"
			  }
			],
			"hide": false,
			"intervalFactor": 2,
			"measurement": "docker",
			"orderByTime": "ASC",
			"policy": "default",
			"query": "SELECT mean(\"n_images\") FROM \"docker\" WHERE \"engine_host\" =~ /^$host$/ AND $timeFilter GROUP BY time($interval) fill(null)",
			"rawQuery": false,
			"refId": "A",
			"resultFormat": "time_series",
			"select": [
			  [
				{
				  "params": [
					"n_images"
				  ],
				  "type": "field"
				},
				{
				  "params": [],
				  "type": "mean"
				}
			  ]
			],
			"tags": [
			  {
				"key": "engine_host",
				"operator": "=~",
				"value": "/^$host$/"
			  }
			]
		  }
		],
		"thresholds": "50,80,100",
		"title": "Number of images on host",
		"type": "singlestat",
		"valueFontSize": "80%",
		"valueMaps": [
		  {
			"op": "=",
			"text": "N/A",
			"value": "null"
		  }
		],
		"valueName": "avg"
	  },
	  {
		"aliasColors": {},
		"bars": false,
		"dashLength": 10,
		"dashes": false,
		"datasource": "Metrics",
		"editable": true,
		"error": false,
		"fieldConfig": {
		  "defaults": {
			"custom": {}
		  },
		  "overrides": []
		},
		"fill": 1,
		"fillGradient": 0,
		"gridPos": {
		  "h": 10,
		  "w": 12,
		  "x": 12,
		  "y": 52
		},
		"hiddenSeries": false,
		"id": 5,
		"legend": {
		  "avg": false,
		  "current": false,
		  "max": false,
		  "min": false,
		  "show": true,
		  "total": false,
		  "values": false
		},
		"lines": true,
		"linewidth": 1,
		"links": [],
		"nullPointMode": "connected",
		"percentage": false,
		"pluginVersion": "7.1.5",
		"pointradius": 5,
		"points": false,
		"renderer": "flot",
		"seriesOverrides": [],
		"spaceLength": 10,
		"stack": false,
		"steppedLine": false,
		"targets": [
		  {
			"alias": "Running",
			"dsType": "influxdb",
			"expr": "",
			"groupBy": [
			  {
				"params": [
				  "$interval"
				],
				"type": "time"
			  },
			  {
				"params": [
				  "null"
				],
				"type": "fill"
			  }
			],
			"intervalFactor": 2,
			"measurement": "docker",
			"orderByTime": "ASC",
			"policy": "default",
			"query": "SELECT mean(\"n_containers_running\") FROM \"docker\" WHERE \"host\" =~ /^$host$/ AND $timeFilter GROUP BY time($interval) fill(null)",
			"rawQuery": false,
			"refId": "A",
			"resultFormat": "time_series",
			"select": [
			  [
				{
				  "params": [
					"n_containers_running"
				  ],
				  "type": "field"
				},
				{
				  "params": [],
				  "type": "mean"
				}
			  ]
			],
			"tags": [
			  {
				"key": "engine_host",
				"operator": "=~",
				"value": "/^$host$/"
			  }
			]
		  },
		  {
			"alias": "Paused",
			"dsType": "influxdb",
			"expr": "",
			"groupBy": [
			  {
				"params": [
				  "$interval"
				],
				"type": "time"
			  },
			  {
				"params": [
				  "null"
				],
				"type": "fill"
			  }
			],
			"intervalFactor": 2,
			"measurement": "docker",
			"orderByTime": "ASC",
			"policy": "default",
			"query": "SELECT mean(\"n_containers_running\") FROM \"docker\" WHERE \"host\" =~ /^$host$/ AND $timeFilter GROUP BY time($interval) fill(null)",
			"rawQuery": false,
			"refId": "B",
			"resultFormat": "time_series",
			"select": [
			  [
				{
				  "params": [
					"n_containers_paused"
				  ],
				  "type": "field"
				},
				{
				  "params": [],
				  "type": "mean"
				}
			  ]
			],
			"tags": [
			  {
				"key": "engine_host",
				"operator": "=~",
				"value": "/^$host$/"
			  }
			]
		  },
		  {
			"alias": "Stopped",
			"dsType": "influxdb",
			"expr": "",
			"groupBy": [
			  {
				"params": [
				  "$interval"
				],
				"type": "time"
			  },
			  {
				"params": [
				  "null"
				],
				"type": "fill"
			  }
			],
			"intervalFactor": 2,
			"measurement": "docker",
			"orderByTime": "ASC",
			"policy": "default",
			"query": "SELECT mean(\"n_containers_running\") FROM \"docker\" WHERE \"host\" =~ /^$host$/ AND $timeFilter GROUP BY time($interval) fill(null)",
			"rawQuery": false,
			"refId": "C",
			"resultFormat": "time_series",
			"select": [
			  [
				{
				  "params": [
					"n_containers_stopped"
				  ],
				  "type": "field"
				},
				{
				  "params": [],
				  "type": "mean"
				}
			  ]
			],
			"tags": [
			  {
				"key": "engine_host",
				"operator": "=~",
				"value": "/^$host$/"
			  }
			]
		  }
		],
		"thresholds": [],
		"timeFrom": null,
		"timeRegions": [],
		"timeShift": null,
		"title": "Container status",
		"tooltip": {
		  "msResolution": false,
		  "shared": true,
		  "sort": 0,
		  "value_type": "individual"
		},
		"type": "graph",
		"xaxis": {
		  "buckets": null,
		  "mode": "time",
		  "name": null,
		  "show": true,
		  "values": []
		},
		"yaxes": [
		  {
			"format": "short",
			"label": null,
			"logBase": 1,
			"max": null,
			"min": null,
			"show": true
		  },
		  {
			"format": "short",
			"label": null,
			"logBase": 1,
			"max": null,
			"min": null,
			"show": true
		  }
		],
		"yaxis": {
		  "align": false,
		  "alignLevel": null
		}
	  }
	],
	"refresh": "5s",
	"schemaVersion": 26,
	"style": "dark",
	"tags": [
	  "docker",
	  "telegraf"
	],
	"templating": {
	  "list": [
		{
		  "allValue": null,
		  "current": {
			"selected": false,
			"text": "minikube",
			"value": "minikube"
		  },
		  "datasource": "Metrics",
		  "definition": "",
		  "hide": 0,
		  "includeAll": false,
		  "label": "Host",
		  "multi": false,
		  "name": "host",
		  "options": [],
		  "query": "show tag values with key = \"engine_host\"\t",
		  "refresh": 1,
		  "regex": "",
		  "skipUrlSync": false,
		  "sort": 1,
		  "tagValuesQuery": "",
		  "tags": [],
		  "tagsQuery": "",
		  "type": "query",
		  "useTags": false
		},
		{
		  "allValue": null,
		  "current": {
			"selected": false,
			"text": "influxdb",
			"value": "influxdb"
		  },
		  "datasource": "Metrics",
		  "definition": "show tag values with key = \"io.kubernetes.container.name\" WHERE \"io.kubernetes.pod.namespace\" = 'default' AND \"io.kubernetes.docker.type\" = 'container'",
		  "hide": 0,
		  "includeAll": false,
		  "label": "Service",
		  "multi": false,
		  "name": "service",
		  "options": [],
		  "query": "show tag values with key = \"io.kubernetes.container.name\" WHERE \"io.kubernetes.pod.namespace\" = 'default' AND \"io.kubernetes.docker.type\" = 'container'",
		  "refresh": 1,
		  "regex": "",
		  "skipUrlSync": false,
		  "sort": 1,
		  "tagValuesQuery": "",
		  "tags": [],
		  "tagsQuery": "",
		  "type": "query",
		  "useTags": false
		}
	  ]
	},
	"time": {
	  "from": "now-5m",
	  "to": "now"
	},
	"timepicker": {
	  "refresh_intervals": [
		"5s",
		"10s",
		"30s",
		"1m",
		"5m",
		"15m",
		"30m",
		"1h",
		"2h",
		"1d"
	  ],
	  "time_options": [
		"5m",
		"15m",
		"1h",
		"6h",
		"12h",
		"24h",
		"2d",
		"7d",
		"30d"
	  ]
	},
	"timezone": "browser",
	"title": "0-minikube",
	"uid": "0-minikube",
	"version": 1
  }