{
	"annotations": {
	  "list": [
		{
		  "builtIn": 1,
		  "datasource": "-- Grafana --",
		  "enable": true,
		  "hide": true,
		  "iconColor": "rgba(0, 211, 255, 1)",
		  "name": "Annotations & Alerts",
		  "type": "dashboard"
		}
	  ]
	},
	"editable": true,
	"gnetId": 27111991,
	"graphTooltip": 1,
	"id": 4,
	"iteration": 1599647091701,
	"links": [],
	"panels": [
	  {
		"cacheTimeout": null,
		"colorBackground": false,
		"colorValue": true,
		"colors": [
		  "rgba(50, 172, 45, 0.97)",
		  "rgba(237, 129, 40, 0.89)",
		  "rgba(245, 54, 54, 0.9)"
		],
		"datasource": "Metrics",
		"decimals": 2,
		"editable": true,
		"error": false,
		"fieldConfig": {
		  "defaults": {
			"custom": {}
		  },
		  "overrides": []
		},
		"format": "percent",
		"gauge": {
		  "maxValue": 100,
		  "minValue": 0,
		  "show": true,
		  "thresholdLabels": false,
		  "thresholdMarkers": true
		},
		"gridPos": {
		  "h": 8,
		  "w": 5,
		  "x": 0,
		  "y": 0
		},
		"height": "350px",
		"id": 4,
		"interval": null,
		"links": [],
		"mappingType": 1,
		"mappingTypes": [
		  {
			"name": "value to text",
			"value": 1
		  },
		  {
			"name": "range to text",
			"value": 2
		  }
		],
		"maxDataPoints": 100,
		"nullPointMode": "connected",
		"nullText": null,
		"postfix": "",
		"postfixFontSize": "50%",
		"prefix": "",
		"prefixFontSize": "50%",
		"rangeMaps": [
		  {
			"from": "null",
			"text": "N/A",
			"to": "null"
		  }
		],
		"sparkline": {
		  "fillColor": "rgba(31, 118, 189, 0.18)",
		  "full": false,
		  "lineColor": "rgb(31, 120, 193)",
		  "show": true,
		  "ymax": null
		},
		"tableColumn": "",
		"targets": [
		  {
			"alias": "",
			"dsType": "influxdb",
			"expr": "",
			"groupBy": [
			  {
				"params": [
				  "$interval"
				],
				"type": "time"
			  },
			  {
				"params": [
				  "null"
				],
				"type": "fill"
			  }
			],
			"intervalFactor": 2,
			"measurement": "docker_container_cpu",
			"orderByTime": "ASC",
			"policy": "default",
			"refId": "A",
			"resultFormat": "time_series",
			"select": [
			  [
				{
				  "params": [
					"usage_percent"
				  ],
				  "type": "field"
				},
				{
				  "params": [],
				  "type": "mean"
				}
			  ]
			],
			"tags": [
			  {
				"key": "io.kubernetes.container.name",
				"operator": "=",
				"value": "vsftpd"
			  }
			]
		  }
		],
		"thresholds": "60,80",
		"title": "Average CPU usage",
		"type": "singlestat",
		"valueFontSize": "80%",
		"valueMaps": [
		  {
			"op": "=",
			"text": "N/A",
			"value": "null"
		  }
		],
		"valueName": "avg"
	  },
	  {
		"cacheTimeout": null,
		"colorBackground": false,
		"colorValue": true,
		"colors": [
		  "rgba(50, 172, 45, 0.97)",
		  "rgba(237, 129, 40, 0.89)",
		  "rgba(245, 54, 54, 0.9)"
		],
		"datasource": "Metrics",
		"decimals": 2,
		"editable": true,
		"error": false,
		"fieldConfig": {
		  "defaults": {
			"custom": {}
		  },
		  "overrides": []
		},
		"format": "percent",
		"gauge": {
		  "maxValue": 100,
		  "minValue": 0,
		  "show": true,
		  "thresholdLabels": false,
		  "thresholdMarkers": true
		},
		"gridPos": {
		  "h": 8,
		  "w": 5,
		  "x": 5,
		  "y": 0
		},
		"height": "350px",
		"id": 12,
		"interval": null,
		"links": [],
		"mappingType": 1,
		"mappingTypes": [
		  {
			"name": "value to text",
			"value": 1
		  },
		  {
			"name": "range to text",
			"value": 2
		  }
		],
		"maxDataPoints": 100,
		"nullPointMode": "connected",
		"nullText": null,
		"postfix": "",
		"postfixFontSize": "50%",
		"prefix": "",
		"prefixFontSize": "50%",
		"rangeMaps": [
		  {
			"from": "null",
			"text": "N/A",
			"to": "null"
		  }
		],
		"sparkline": {
		  "fillColor": "rgba(31, 118, 189, 0.18)",
		  "full": false,
		  "lineColor": "rgb(31, 120, 193)",
		  "show": true,
		  "ymax": null
		},
		"tableColumn": "",
		"targets": [
		  {
			"alias": "",
			"dsType": "influxdb",
			"expr": "",
			"groupBy": [
			  {
				"params": [
				  "$interval"
				],
				"type": "time"
			  },
			  {
				"params": [
				  "null"
				],
				"type": "fill"
			  }
			],
			"intervalFactor": 2,
			"measurement": "docker_container_cpu",
			"orderByTime": "ASC",
			"policy": "default",
			"refId": "A",
			"resultFormat": "time_series",
			"select": [
			  [
				{
				  "params": [
					"usage_percent"
				  ],
				  "type": "field"
				},
				{
				  "params": [],
				  "type": "mean"
				}
			  ]
			],
			"tags": [
			  {
				"key": "io.kubernetes.container.name",
				"operator": "=",
				"value": "vsftpd"
			  }
			]
		  }
		],
		"thresholds": "60,80",
		"title": "Current CPU usage",
		"type": "singlestat",
		"valueFontSize": "80%",
		"valueMaps": [
		  {
			"op": "=",
			"text": "N/A",
			"value": "null"
		  }
		],
		"valueName": "current"
	  },
	  {
		"datasource": "Metrics",
		"fieldConfig": {
		  "defaults": {
			"custom": {},
			"mappings": [],
			"thresholds": {
			  "mode": "absolute",
			  "steps": [
				{
				  "color": "green",
				  "value": null
				},
				{
				  "color": "red",
				  "value": 80
				}
			  ]
			},
			"unit": "percent"
		  },
		  "overrides": []
		},
		"gridPos": {
		  "h": 4,
		  "w": 14,
		  "x": 10,
		  "y": 0
		},
		"id": 13,
		"links": [],
		"options": {
		  "displayMode": "basic",
		  "orientation": "horizontal",
		  "reduceOptions": {
			"calcs": [
			  "min"
			],
			"fields": "",
			"values": false
		  },
		  "showUnfilled": true
		},
		"pluginVersion": "7.1.5",
		"targets": [
		  {
			"alias": "",
			"dsType": "influxdb",
			"expr": "",
			"groupBy": [
			  {
				"params": [
				  "$interval"
				],
				"type": "time"
			  },
			  {
				"params": [
				  "io.kubernetes.container.name"
				],
				"type": "tag"
			  },
			  {
				"params": [
				  "null"
				],
				"type": "fill"
			  }
			],
			"intervalFactor": 2,
			"measurement": "docker_container_cpu",
			"orderByTime": "ASC",
			"policy": "default",
			"refId": "A",
			"resultFormat": "time_series",
			"select": [
			  [
				{
				  "params": [
					"usage_percent"
				  ],
				  "type": "field"
				},
				{
				  "params": [],
				  "type": "mean"
				}
			  ]
			],
			"tags": [
			  {
				"key": "io.kubernetes.container.name",
				"operator": "=",
				"value": "vsftpd"
			  }
			]
		  }
		],
		"timeFrom": null,
		"timeShift": null,
		"title": "Minimum CPU usage",
		"transparent": true,
		"type": "bargauge"
	  },
	  {
		"datasource": "Metrics",
		"fieldConfig": {
		  "defaults": {
			"custom": {},
			"mappings": [],
			"thresholds": {
			  "mode": "absolute",
			  "steps": [
				{
				  "color": "green",
				  "value": null
				},
				{
				  "color": "red",
				  "value": 80
				}
			  ]
			},
			"unit": "percent"
		  },
		  "overrides": []
		},
		"gridPos": {
		  "h": 4,
		  "w": 14,
		  "x": 10,
		  "y": 4
		},
		"id": 14,
		"links": [],
		"options": {
		  "displayMode": "basic",
		  "orientation": "horizontal",
		  "reduceOptions": {
			"calcs": [
			  "max"
			],
			"fields": "",
			"values": false
		  },
		  "showUnfilled": true
		},
		"pluginVersion": "7.1.5",
		"targets": [
		  {
			"alias": "",
			"dsType": "influxdb",
			"expr": "",
			"groupBy": [
			  {
				"params": [
				  "$interval"
				],
				"type": "time"
			  },
			  {
				"params": [
				  "io.kubernetes.container.name"
				],
				"type": "tag"
			  },
			  {
				"params": [
				  "null"
				],
				"type": "fill"
			  }
			],
			"intervalFactor": 2,
			"measurement": "docker_container_cpu",
			"orderByTime": "ASC",
			"policy": "default",
			"refId": "A",
			"resultFormat": "time_series",
			"select": [
			  [
				{
				  "params": [
					"usage_percent"
				  ],
				  "type": "field"
				},
				{
				  "params": [],
				  "type": "mean"
				}
			  ]
			],
			"tags": [
			  {
				"key": "io.kubernetes.container.name",
				"operator": "=",
				"value": "vsftpd"
			  }
			]
		  }
		],
		"timeFrom": null,
		"timeShift": null,
		"title": "Maximum CPU usage",
		"transparent": true,
		"type": "bargauge"
	  },
	  {
		"aliasColors": {},
		"bars": false,
		"dashLength": 10,
		"dashes": false,
		"datasource": "Metrics",
		"editable": true,
		"error": false,
		"fieldConfig": {
		  "defaults": {
			"custom": {}
		  },
		  "overrides": []
		},
		"fill": 1,
		"fillGradient": 0,
		"gridPos": {
		  "h": 8,
		  "w": 24,
		  "x": 0,
		  "y": 8
		},
		"height": "350px",
		"hiddenSeries": false,
		"id": 1,
		"legend": {
		  "alignAsTable": false,
		  "avg": false,
		  "current": false,
		  "max": false,
		  "min": false,
		  "rightSide": true,
		  "show": true,
		  "sideWidth": 300,
		  "total": false,
		  "values": false
		},
		"lines": true,
		"linewidth": 1,
		"links": [],
		"maxPerRow": 1,
		"nullPointMode": "connected",
		"percentage": false,
		"pluginVersion": "7.1.5",
		"pointradius": 5,
		"points": false,
		"renderer": "flot",
		"seriesOverrides": [],
		"spaceLength": 10,
		"stack": false,
		"steppedLine": false,
		"targets": [
		  {
			"alias": "[[tag_io.kubernetes.pod.name]]",
			"dsType": "influxdb",
			"expr": "",
			"groupBy": [
			  {
				"params": [
				  "$interval"
				],
				"type": "time"
			  },
			  {
				"params": [
				  "io.kubernetes.pod.name"
				],
				"type": "tag"
			  },
			  {
				"params": [
				  "null"
				],
				"type": "fill"
			  }
			],
			"intervalFactor": 2,
			"measurement": "docker_container_cpu",
			"orderByTime": "ASC",
			"policy": "default",
			"refId": "A",
			"resultFormat": "time_series",
			"select": [
			  [
				{
				  "params": [
					"usage_percent"
				  ],
				  "type": "field"
				},
				{
				  "params": [],
				  "type": "mean"
				}
			  ]
			],
			"tags": [
			  {
				"key": "io.kubernetes.container.name",
				"operator": "=",
				"value": "vsftpd"
			  }
			]
		  }
		],
		"thresholds": [
		  {
			"colorMode": "critical",
			"fill": true,
			"line": true,
			"op": "gt",
			"value": 80,
			"yaxis": "left"
		  }
		],
		"timeFrom": null,
		"timeRegions": [],
		"timeShift": null,
		"title": "Container(s) CPU usage",
		"tooltip": {
		  "msResolution": false,
		  "shared": true,
		  "sort": 0,
		  "value_type": "individual"
		},
		"transparent": true,
		"type": "graph",
		"xaxis": {
		  "buckets": null,
		  "mode": "time",
		  "name": null,
		  "show": true,
		  "values": []
		},
		"yaxes": [
		  {
			"format": "percent",
			"label": null,
			"logBase": 1,
			"max": "100",
			"min": null,
			"show": true
		  },
		  {
			"format": "short",
			"label": null,
			"logBase": 1,
			"max": null,
			"min": null,
			"show": true
		  }
		],
		"yaxis": {
		  "align": false,
		  "alignLevel": null
		}
	  },
	  {
		"cacheTimeout": null,
		"colorBackground": false,
		"colorValue": true,
		"colors": [
		  "rgba(50, 172, 45, 0.97)",
		  "rgba(237, 129, 40, 0.89)",
		  "rgba(245, 54, 54, 0.9)"
		],
		"datasource": "Metrics",
		"decimals": 2,
		"editable": true,
		"error": false,
		"fieldConfig": {
		  "defaults": {
			"custom": {}
		  },
		  "overrides": []
		},
		"format": "percent",
		"gauge": {
		  "maxValue": 100,
		  "minValue": 0,
		  "show": true,
		  "thresholdLabels": false,
		  "thresholdMarkers": true
		},
		"gridPos": {
		  "h": 8,
		  "w": 5,
		  "x": 0,
		  "y": 16
		},
		"height": "350px",
		"id": 15,
		"interval": null,
		"links": [],
		"mappingType": 1,
		"mappingTypes": [
		  {
			"name": "value to text",
			"value": 1
		  },
		  {
			"name": "range to text",
			"value": 2
		  }
		],
		"maxDataPoints": 100,
		"nullPointMode": "connected",
		"nullText": null,
		"postfix": "",
		"postfixFontSize": "50%",
		"prefix": "",
		"prefixFontSize": "50%",
		"rangeMaps": [
		  {
			"from": "null",
			"text": "N/A",
			"to": "null"
		  }
		],
		"sparkline": {
		  "fillColor": "rgba(31, 118, 189, 0.18)",
		  "full": false,
		  "lineColor": "rgb(31, 120, 193)",
		  "show": true,
		  "ymax": null
		},
		"tableColumn": "",
		"targets": [
		  {
			"alias": "[[tag_io.kubernetes.container.name]]",
			"dsType": "influxdb",
			"expr": "",
			"groupBy": [
			  {
				"params": [
				  "$interval"
				],
				"type": "time"
			  },
			  {
				"params": [
				  "null"
				],
				"type": "fill"
			  }
			],
			"intervalFactor": 2,
			"measurement": "docker_container_mem",
			"orderByTime": "ASC",
			"policy": "default",
			"refId": "A",
			"resultFormat": "time_series",
			"select": [
			  [
				{
				  "params": [
					"usage_percent"
				  ],
				  "type": "field"
				},
				{
				  "params": [],
				  "type": "mean"
				}
			  ]
			],
			"tags": [
			  {
				"key": "io.kubernetes.container.name",
				"operator": "=",
				"value": "vsftpd"
			  }
			]
		  }
		],
		"thresholds": "60,80",
		"title": "Average MEM usage",
		"type": "singlestat",
		"valueFontSize": "80%",
		"valueMaps": [
		  {
			"op": "=",
			"text": "N/A",
			"value": "null"
		  }
		],
		"valueName": "avg"
	  },
	  {
		"cacheTimeout": null,
		"colorBackground": false,
		"colorValue": true,
		"colors": [
		  "rgba(50, 172, 45, 0.97)",
		  "rgba(237, 129, 40, 0.89)",
		  "rgba(245, 54, 54, 0.9)"
		],
		"datasource": "Metrics",
		"decimals": 2,
		"editable": true,
		"error": false,
		"fieldConfig": {
		  "defaults": {
			"custom": {}
		  },
		  "overrides": []
		},
		"format": "percent",
		"gauge": {
		  "maxValue": 100,
		  "minValue": 0,
		  "show": true,
		  "thresholdLabels": false,
		  "thresholdMarkers": true
		},
		"gridPos": {
		  "h": 8,
		  "w": 5,
		  "x": 5,
		  "y": 16
		},
		"height": "350px",
		"id": 16,
		"interval": null,
		"links": [],
		"mappingType": 1,
		"mappingTypes": [
		  {
			"name": "value to text",
			"value": 1
		  },
		  {
			"name": "range to text",
			"value": 2
		  }
		],
		"maxDataPoints": 100,
		"nullPointMode": "connected",
		"nullText": null,
		"postfix": "",
		"postfixFontSize": "50%",
		"prefix": "",
		"prefixFontSize": "50%",
		"rangeMaps": [
		  {
			"from": "null",
			"text": "N/A",
			"to": "null"
		  }
		],
		"sparkline": {
		  "fillColor": "rgba(31, 118, 189, 0.18)",
		  "full": false,
		  "lineColor": "rgb(31, 120, 193)",
		  "show": true,
		  "ymax": null
		},
		"tableColumn": "",
		"targets": [
		  {
			"alias": "[[tag_io.kubernetes.container.name]]",
			"dsType": "influxdb",
			"expr": "",
			"groupBy": [
			  {
				"params": [
				  "$interval"
				],
				"type": "time"
			  },
			  {
				"params": [
				  "null"
				],
				"type": "fill"
			  }
			],
			"intervalFactor": 2,
			"measurement": "docker_container_mem",
			"orderByTime": "ASC",
			"policy": "default",
			"refId": "A",
			"resultFormat": "time_series",
			"select": [
			  [
				{
				  "params": [
					"usage_percent"
				  ],
				  "type": "field"
				},
				{
				  "params": [],
				  "type": "mean"
				}
			  ]
			],
			"tags": [
			  {
				"key": "io.kubernetes.container.name",
				"operator": "=",
				"value": "vsftpd"
			  }
			]
		  }
		],
		"thresholds": "60,80",
		"title": "Current MEM usage",
		"type": "singlestat",
		"valueFontSize": "80%",
		"valueMaps": [
		  {
			"op": "=",
			"text": "N/A",
			"value": "null"
		  }
		],
		"valueName": "current"
	  },
	  {
		"datasource": "Metrics",
		"fieldConfig": {
		  "defaults": {
			"custom": {},
			"mappings": [],
			"thresholds": {
			  "mode": "absolute",
			  "steps": [
				{
				  "color": "green",
				  "value": null
				},
				{
				  "color": "red",
				  "value": 80
				}
			  ]
			},
			"unit": "percent"
		  },
		  "overrides": []
		},
		"gridPos": {
		  "h": 4,
		  "w": 14,
		  "x": 10,
		  "y": 16
		},
		"id": 17,
		"links": [],
		"options": {
		  "displayMode": "basic",
		  "orientation": "horizontal",
		  "reduceOptions": {
			"calcs": [
			  "min"
			],
			"fields": "",
			"values": false
		  },
		  "showUnfilled": true
		},
		"pluginVersion": "7.1.5",
		"targets": [
		  {
			"alias": "",
			"dsType": "influxdb",
			"expr": "",
			"groupBy": [
			  {
				"params": [
				  "$interval"
				],
				"type": "time"
			  },
			  {
				"params": [
				  "io.kubernetes.container.name"
				],
				"type": "tag"
			  },
			  {
				"params": [
				  "null"
				],
				"type": "fill"
			  }
			],
			"intervalFactor": 2,
			"measurement": "docker_container_mem",
			"orderByTime": "ASC",
			"policy": "default",
			"refId": "A",
			"resultFormat": "time_series",
			"select": [
			  [
				{
				  "params": [
					"usage_percent"
				  ],
				  "type": "field"
				},
				{
				  "params": [],
				  "type": "mean"
				}
			  ]
			],
			"tags": [
			  {
				"key": "io.kubernetes.container.name",
				"operator": "=",
				"value": "vsftpd"
			  }
			]
		  }
		],
		"timeFrom": null,
		"timeShift": null,
		"title": "Minimum MEM usage",
		"transparent": true,
		"type": "bargauge"
	  },
	  {
		"datasource": "Metrics",
		"fieldConfig": {
		  "defaults": {
			"custom": {},
			"mappings": [],
			"thresholds": {
			  "mode": "absolute",
			  "steps": [
				{
				  "color": "green",
				  "value": null
				},
				{
				  "color": "red",
				  "value": 80
				}
			  ]
			},
			"unit": "percent"
		  },
		  "overrides": []
		},
		"gridPos": {
		  "h": 4,
		  "w": 14,
		  "x": 10,
		  "y": 20
		},
		"id": 18,
		"links": [],
		"options": {
		  "displayMode": "basic",
		  "orientation": "horizontal",
		  "reduceOptions": {
			"calcs": [
			  "max"
			],
			"fields": "",
			"values": false
		  },
		  "showUnfilled": true
		},
		"pluginVersion": "7.1.5",
		"targets": [
		  {
			"alias": "",
			"dsType": "influxdb",
			"expr": "",
			"groupBy": [
			  {
				"params": [
				  "$interval"
				],
				"type": "time"
			  },
			  {
				"params": [
				  "io.kubernetes.container.name"
				],
				"type": "tag"
			  },
			  {
				"params": [
				  "null"
				],
				"type": "fill"
			  }
			],
			"intervalFactor": 2,
			"measurement": "docker_container_mem",
			"orderByTime": "ASC",
			"policy": "default",
			"refId": "A",
			"resultFormat": "time_series",
			"select": [
			  [
				{
				  "params": [
					"usage_percent"
				  ],
				  "type": "field"
				},
				{
				  "params": [],
				  "type": "mean"
				}
			  ]
			],
			"tags": [
			  {
				"key": "io.kubernetes.container.name",
				"operator": "=",
				"value": "vsftpd"
			  }
			]
		  }
		],
		"timeFrom": null,
		"timeShift": null,
		"title": "Maximum MEM usage",
		"transparent": true,
		"type": "bargauge"
	  },
	  {
		"aliasColors": {},
		"bars": false,
		"dashLength": 10,
		"dashes": false,
		"datasource": "Metrics",
		"editable": true,
		"error": false,
		"fieldConfig": {
		  "defaults": {
			"custom": {}
		  },
		  "overrides": []
		},
		"fill": 1,
		"fillGradient": 0,
		"gridPos": {
		  "h": 8,
		  "w": 24,
		  "x": 0,
		  "y": 24
		},
		"height": "350px",
		"hiddenSeries": false,
		"id": 19,
		"legend": {
		  "alignAsTable": false,
		  "avg": false,
		  "current": false,
		  "max": false,
		  "min": false,
		  "rightSide": true,
		  "show": true,
		  "sideWidth": 300,
		  "total": false,
		  "values": false
		},
		"lines": true,
		"linewidth": 1,
		"links": [],
		"maxPerRow": 1,
		"nullPointMode": "connected",
		"percentage": false,
		"pluginVersion": "7.1.5",
		"pointradius": 5,
		"points": false,
		"renderer": "flot",
		"seriesOverrides": [],
		"spaceLength": 10,
		"stack": false,
		"steppedLine": false,
		"targets": [
		  {
			"alias": "[[tag_io.kubernetes.pod.name]]",
			"dsType": "influxdb",
			"expr": "",
			"groupBy": [
			  {
				"params": [
				  "$interval"
				],
				"type": "time"
			  },
			  {
				"params": [
				  "io.kubernetes.pod.name"
				],
				"type": "tag"
			  },
			  {
				"params": [
				  "null"
				],
				"type": "fill"
			  }
			],
			"intervalFactor": 2,
			"measurement": "docker_container_mem",
			"orderByTime": "ASC",
			"policy": "default",
			"refId": "A",
			"resultFormat": "time_series",
			"select": [
			  [
				{
				  "params": [
					"usage_percent"
				  ],
				  "type": "field"
				},
				{
				  "params": [],
				  "type": "mean"
				}
			  ]
			],
			"tags": [
			  {
				"key": "io.kubernetes.container.name",
				"operator": "=",
				"value": "vsftpd"
			  }
			]
		  }
		],
		"thresholds": [
		  {
			"colorMode": "critical",
			"fill": true,
			"line": true,
			"op": "gt",
			"value": 80,
			"yaxis": "left"
		  }
		],
		"timeFrom": null,
		"timeRegions": [],
		"timeShift": null,
		"title": "Container(s) MEM usage",
		"tooltip": {
		  "msResolution": false,
		  "shared": true,
		  "sort": 0,
		  "value_type": "individual"
		},
		"transparent": true,
		"type": "graph",
		"xaxis": {
		  "buckets": null,
		  "mode": "time",
		  "name": null,
		  "show": true,
		  "values": []
		},
		"yaxes": [
		  {
			"format": "percent",
			"label": null,
			"logBase": 1,
			"max": "100",
			"min": null,
			"show": true
		  },
		  {
			"format": "short",
			"label": null,
			"logBase": 1,
			"max": null,
			"min": null,
			"show": true
		  }
		],
		"yaxis": {
		  "align": false,
		  "alignLevel": null
		}
	  }
	],
	"refresh": "5s",
	"schemaVersion": 26,
	"style": "dark",
	"tags": [
	  "docker",
	  "telegraf"
	],
	"templating": {
	  "list": []
	},
	"time": {
	  "from": "now-30m",
	  "to": "now"
	},
	"timepicker": {
	  "refresh_intervals": [
		"5s",
		"10s",
		"30s",
		"1m",
		"5m",
		"15m",
		"30m",
		"1h",
		"2h",
		"1d"
	  ],
	  "time_options": [
		"5m",
		"15m",
		"1h",
		"6h",
		"12h",
		"24h",
		"2d",
		"7d",
		"30d"
	  ]
	},
	"timezone": "browser",
	"title": "vsftpd Dashboard",
	"uid": "vsftpd",
	"version": 1
  }